{
  "users": [],
  "posts": [{
      "id": 1,
      "title": "Post 1 - React snowpack with redux-saga",
      "body": "Not important right now, just a test"
    },
    {
      "id": 2,
      "title": "Post 2 - React snowpack with redux-saga",
      "body": "Not important right now, just a test"
    },
    {
      "id": 3,
      "title": "Post 3 - React snowpack with redux-saga",
      "body": "Not important right now, just a test"
    },
    {
      "id": 4,
      "title": "Post 4 - React snowpack with redux-saga",
      "body": "Not important right now, just a test"
    }
  ]
}